/*****************CCB Mail triggered starts at 3/30/2018 5:07:32 PM*****************/
Executing CCBPublishMail at time 3/30/2018 5:07:37 PM
CCB Mail sent at 3/30/2018 5:07:53 PM
/*****************CCB Mail triggered ends at 3/30/2018 5:07:53 PM*****************/
/*****************CCB Mail triggered starts at 3/30/2018 5:10:35 PM*****************/
Executing CCBPublishMail at time 3/30/2018 5:10:36 PM
CCB Mail sent at 3/30/2018 5:10:40 PM
/*****************CCB Mail triggered ends at 3/30/2018 5:10:40 PM*****************/
/*****************CCB Mail triggered starts at 4/18/2018 6:02:58 PM*****************/
Executing CCBMail at time 4/18/2018 6:03:07 PM
System.ArgumentNullException: Value cannot be null.
Parameter name: path
   at System.IO.Path.GetFullPathInternal(String path)
   at System.IO.Path.GetFullPath(String path)
   at Library.Email.SendPatchingEmail(DateTime patchDate, String environment, String activityType, String patchingLogPath) in D:\ganesh\sca_internal\Library\Email.cs:line 623
/*****************CCB Mail triggered ends at 4/18/2018 6:03:16 PM*****************/
/*****************CCB Mail triggered starts at 4/18/2018 6:16:55 PM*****************/
Executing CCBMail at time 4/18/2018 6:16:55 PM
System.ArgumentNullException: Value cannot be null.
Parameter name: path
   at System.IO.Path.GetFullPathInternal(String path)
   at System.IO.Path.GetFullPath(String path)
   at Library.Email.SendPatchingEmail(DateTime patchDate, String environment, String activityType, String patchingLogPath) in D:\ganesh\sca_internal\Library\Email.cs:line 623
/*****************CCB Mail triggered ends at 4/18/2018 6:16:56 PM*****************/
/*****************CCB Mail triggered starts at 4/18/2018 6:24:50 PM*****************/
Executing CCBMail at time 4/18/2018 6:24:51 PM
System.ArgumentNullException: Value cannot be null.
Parameter name: path
   at System.IO.Path.GetFullPathInternal(String path)
   at System.IO.Path.GetFullPath(String path)
   at Library.Email.SendPatchingEmail(DateTime patchDate, String environment, String activityType, String patchingLogPath) in D:\ganesh\sca_internal\Library\Email.cs:line 623
/*****************CCB Mail triggered ends at 4/18/2018 6:24:51 PM*****************/
/*****************CCB Mail triggered starts at 4/18/2018 7:30:04 PM*****************/
Executing CCBMail at time 4/18/2018 7:30:04 PM
System.ArgumentNullException: Value cannot be null.
Parameter name: path
   at System.IO.Path.GetFullPathInternal(String path)
   at System.IO.Path.GetFullPath(String path)
   at Library.Email.SendPatchingEmail(DateTime patchDate, String environment, String activityType, String patchingLogPath) in D:\ganesh\sca_internal\Library\Email.cs:line 623
/*****************CCB Mail triggered ends at 4/18/2018 7:30:05 PM*****************/
/*****************CCB Mail triggered starts at 4/18/2018 7:35:36 PM*****************/
Executing CCBMail at time 4/18/2018 7:35:36 PM
CCB Mail sent at 4/18/2018 7:35:37 PM
/*****************CCB Mail triggered ends at 4/18/2018 7:35:37 PM*****************/
/*****************CCB Mail triggered starts at 4/18/2018 2:14:31 PM*****************/
Executing CCBMail at time 4/18/2018 2:14:31 PM
CCB Mail sent at 4/18/2018 2:14:31 PM
/*****************CCB Mail triggered ends at 4/18/2018 2:14:31 PM*****************/
/*****************CCB Mail triggered starts at 4/25/2018 11:39:03 AM*****************/
Executing CCBMail at time 4/25/2018 11:39:24 AM
/*****************CCB Mail triggered starts at 4/25/2018 11:42:36 AM*****************/
Executing CCBMail at time 4/25/2018 11:47:48 AM
CCB Mail sent at 4/25/2018 11:52:27 AM
/*****************CCB Mail triggered ends at 4/25/2018 11:52:30 AM*****************/
